UART_TX_simple/UART_TX_simple.vcd
$date
	Wed Jun  7 10:36:49 2023
$end
$version
	Icarus Verilog
$end
$timescale
	1ps
$end
$scope module UART_TX_simple_tb $end
$var reg 8 ! byte_tb [7:0] $end
$var reg 4 " char_cnt [3:0] $end
$var reg 1 # clk_tb $end
$var reg 12 $ clock_count [11:0] $end
$var reg 1 % send_tb $end
$var reg 4 & state_tb [3:0] $end
$var integer 32 ' count_finish_tb [31:0] $end
$scope module dut $end
$var wire 1 # clk $end
$var wire 1 % send_byte $end
$var wire 8 ( tx_byte [7:0] $end
$var reg 3 ) bit_cnt [2:0] $end
$var reg 8 * byte_reg [7:0] $end
$var reg 1 + serial_tx $end
$var reg 4 , state [3:0] $end
$var reg 1 - uart_clk $end
$var reg 10 . uart_clk_divider [9:0] $end
$upscope $end
$upscope $end
$scope module UART_TX_simple_tb $end
$scope module dut $end
$upscope $end
$upscope $end
$enddefinitions $end
#0
$dumpvars
b0 .
0-
b0 ,
0+
bx *
b0 )
b10001000 (
b0 '
b0 &
0%
b0 $
0#
b0 "
b10001000 !
$end
#30000
b1 .
b1 &
b1 '
1#
#60000
b10 '
0#
#90000
b10 &
1%
b10 .
b11 '
1#
#120000
b100 '
0#
#150000
b11 .
b1 $
b101 '
1#
#180000
b110 '
0#
#210000
b10 $
b100 .
b111 '
1#
#240000
b1000 '
0#
#270000
b101 .
b11 $
b1001 '
1#
#300000
b1010 '
0#
#330000
b100 $
b110 .
b1011 '
1#
#360000
b1100 '
0#
#390000
b111 .
b101 $
b1101 '
1#
#420000
b1110 '
0#
#450000
b110 $
b1000 .
b1111 '
1#
#480000
b10000 '
0#
#510000
b1001 .
b111 $
b10001 '
1#
#540000
b10010 '
0#
#570000
b1000 $
b1010 .
b10011 '
1#
#600000
b10100 '
0#
#630000
b1011 .
b1001 $
b10101 '
1#
#660000
b10110 '
0#
#690000
b1010 $
b1100 .
b10111 '
1#
#720000
b11000 '
0#
#750000
b1101 .
b1011 $
b11001 '
1#
#780000
b11010 '
0#
#810000
b1100 $
b1110 .
b11011 '
1#
#840000
b11100 '
0#
#870000
b1111 .
b1101 $
b11101 '
1#
#900000
b11110 '
0#
#930000
b1110 $
b10000 .
b11111 '
1#
#960000
b100000 '
0#
#990000
b10001 .
b1111 $
b100001 '
1#
#1020000
b100010 '
0#
#1050000
b10000 $
b10010 .
b100011 '
1#
#1080000
b100100 '
0#
#1110000
b10011 .
b10001 $
b100101 '
1#
#1140000
b100110 '
0#
#1170000
b10010 $
b10100 .
b100111 '
1#
#1200000
b101000 '
0#
#1230000
b10101 .
b10011 $
b101001 '
1#
#1260000
b101010 '
0#
#1290000
b10100 $
b10110 .
b101011 '
1#
#1320000
b101100 '
0#
#1350000
b10111 .
b10101 $
b101101 '
1#
#1380000
b101110 '
0#
#1410000
b10110 $
b11000 .
b101111 '
1#
#1440000
b110000 '
0#
#1470000
b11001 .
b10111 $
b110001 '
1#
#1500000
b110010 '
0#
#1530000
b11000 $
b11010 .
b110011 '
1#
#1560000
b110100 '
0#
#1590000
b11011 .
b11001 $
b110101 '
1#
#1620000
b110110 '
0#
#1650000
b11010 $
b11100 .
b110111 '
1#
#1680000
b111000 '
0#
#1710000
b11101 .
b11011 $
b111001 '
1#
#1740000
b111010 '
0#
#1770000
b11100 $
b11110 .
b111011 '
1#
#1800000
b111100 '
0#
#1830000
b11111 .
b11101 $
b111101 '
1#
#1860000
b111110 '
0#
#1890000
b11110 $
b100000 .
b111111 '
1#
#1920000
b1000000 '
0#
#1950000
b100001 .
b11111 $
b1000001 '
1#
#1980000
b1000010 '
0#
#2010000
b100000 $
b100010 .
b1000011 '
1#
#2040000
b1000100 '
0#
#2070000
b100011 .
b100001 $
b1000101 '
1#
#2100000
b1000110 '
0#
#2130000
b100010 $
b100100 .
b1000111 '
1#
#2160000
b1001000 '
0#
#2190000
b100101 .
b100011 $
b1001001 '
1#
#2220000
b1001010 '
0#
#2250000
b100100 $
b100110 .
b1001011 '
1#
#2280000
b1001100 '
0#
#2310000
b100111 .
b100101 $
b1001101 '
1#
#2340000
b1001110 '
0#
#2370000
b100110 $
b101000 .
b1001111 '
1#
#2400000
b1010000 '
0#
#2430000
b101001 .
b100111 $
b1010001 '
1#
#2460000
b1010010 '
0#
#2490000
b101000 $
b101010 .
b1010011 '
1#
#2520000
b1010100 '
0#
#2550000
b101011 .
b101001 $
b1010101 '
1#
#2580000
b1010110 '
0#
#2610000
b101010 $
b101100 .
b1010111 '
1#
#2640000
b1011000 '
0#
#2670000
b101101 .
b101011 $
b1011001 '
1#
#2700000
b1011010 '
0#
#2730000
b101100 $
b101110 .
b1011011 '
1#
#2760000
b1011100 '
0#
#2790000
b101111 .
b101101 $
b1011101 '
1#
#2820000
b1011110 '
0#
#2850000
b101110 $
b110000 .
b1011111 '
1#
#2880000
b1100000 '
0#
#2910000
b110001 .
b101111 $
b1100001 '
1#
#2940000
b1100010 '
0#
#2970000
b110000 $
b110010 .
b1100011 '
1#
#3000000
b1100100 '
0#
#3030000
b110011 .
b110001 $
b1100101 '
1#
#3060000
b1100110 '
0#
#3090000
b110010 $
b110100 .
b1100111 '
1#
#3120000
b1101000 '
0#
#3150000
b110101 .
b110011 $
b1101001 '
1#
#3180000
b1101010 '
0#
#3210000
b110100 $
b110110 .
b1101011 '
1#
#3240000
b1101100 '
0#
#3270000
b110111 .
b110101 $
b1101101 '
1#
#3300000
b1101110 '
0#
#3330000
b110110 $
b111000 .
b1101111 '
1#
#3360000
b1110000 '
0#
#3390000
b111001 .
b110111 $
b1110001 '
1#
#3420000
b1110010 '
0#
#3450000
b111000 $
b111010 .
b1110011 '
1#
#3480000
b1110100 '
0#
#3510000
b111011 .
b111001 $
b1110101 '
1#
#3540000
b1110110 '
0#
#3570000
b111010 $
b111100 .
b1110111 '
1#
#3600000
b1111000 '
0#
#3630000
b111101 .
b111011 $
b1111001 '
1#
#3660000
b1111010 '
0#
#3690000
b111100 $
b111110 .
b1111011 '
1#
#3720000
b1111100 '
0#
#3750000
b111111 .
b111101 $
b1111101 '
1#
#3780000
b1111110 '
0#
#3810000
b111110 $
b1000000 .
b1111111 '
1#
#3840000
b10000000 '
0#
#3870000
b1000001 .
b111111 $
b10000001 '
1#
#3900000
b10000010 '
0#
#3930000
b1000000 $
b1000010 .
b10000011 '
1#
#3960000
b10000100 '
0#
#3990000
b1000011 .
b1000001 $
b10000101 '
1#
#4020000
b10000110 '
0#
#4050000
b1000010 $
b1000100 .
b10000111 '
1#
#4080000
b10001000 '
0#
#4110000
b1000101 .
b1000011 $
b10001001 '
1#
#4140000
b10001010 '
0#
#4170000
b1000100 $
b1000110 .
b10001011 '
1#
#4200000
b10001100 '
0#
#4230000
b1000111 .
b1000101 $
b10001101 '
1#
#4260000
b10001110 '
0#
#4290000
b1000110 $
b1001000 .
b10001111 '
1#
#4320000
b10010000 '
0#
#4350000
b1001001 .
b1000111 $
b10010001 '
1#
#4380000
b10010010 '
0#
#4410000
b1001000 $
b1001010 .
b10010011 '
1#
#4440000
b10010100 '
0#
#4470000
b1001011 .
b1001001 $
b10010101 '
1#
#4500000
b10010110 '
0#
#4530000
b1001010 $
b1001100 .
b10010111 '
1#
#4560000
b10011000 '
0#
#4590000
b1001101 .
b1001011 $
b10011001 '
1#
#4620000
b10011010 '
0#
#4650000
b1001100 $
b1001110 .
b10011011 '
1#
#4680000
b10011100 '
0#
#4710000
b1001111 .
b1001101 $
b10011101 '
1#
#4740000
b10011110 '
0#
#4770000
b1001110 $
b1010000 .
b10011111 '
1#
#4800000
b10100000 '
0#
#4830000
b1010001 .
b1001111 $
b10100001 '
1#
#4860000
b10100010 '
0#
#4890000
b1010000 $
b1010010 .
b10100011 '
1#
#4920000
b10100100 '
0#
#4950000
b1010011 .
b1010001 $
b10100101 '
1#
#4980000
b10100110 '
0#
#5010000
b1010010 $
b1010100 .
b10100111 '
1#
#5040000
b10101000 '
0#
#5070000
b1010101 .
b1010011 $
b10101001 '
1#
#5100000
b10101010 '
0#
#5130000
b1010100 $
b1010110 .
b10101011 '
1#
#5160000
b10101100 '
0#
#5190000
b1010111 .
b1010101 $
b10101101 '
1#
#5220000
b10101110 '
0#
#5250000
b1010110 $
b1011000 .
b10101111 '
1#
#5280000
b10110000 '
0#
#5310000
b1011001 .
b1010111 $
b10110001 '
1#
#5340000
b10110010 '
0#
#5370000
b1011000 $
b1011010 .
b10110011 '
1#
#5400000
b10110100 '
0#
#5430000
b1011011 .
b1011001 $
b10110101 '
1#
#5460000
b10110110 '
0#
#5490000
b1011010 $
b1011100 .
b10110111 '
1#
#5520000
b10111000 '
0#
#5550000
b1011101 .
b1011011 $
b10111001 '
1#
#5580000
b10111010 '
0#
#5610000
b1011100 $
b1011110 .
b10111011 '
1#
#5640000
b10111100 '
0#
#5670000
b1011111 .
b1011101 $
b10111101 '
1#
#5700000
b10111110 '
0#
#5730000
b1011110 $
b1100000 .
b10111111 '
1#
#5760000
b11000000 '
0#
#5790000
b1100001 .
b1011111 $
b11000001 '
1#
#5820000
b11000010 '
0#
#5850000
b1100000 $
b1100010 .
b11000011 '
1#
#5880000
b11000100 '
0#
#5910000
b1100011 .
b1100001 $
b11000101 '
1#
#5940000
b11000110 '
0#
#5970000
b1100010 $
b1100100 .
b11000111 '
1#
#6000000
b11001000 '
0#
#6030000
b1100101 .
b1100011 $
b11001001 '
1#
#6060000
b11001010 '
0#
#6090000
b1100100 $
b1100110 .
b11001011 '
1#
#6120000
b11001100 '
0#
#6150000
b1100111 .
b1100101 $
b11001101 '
1#
#6180000
b11001110 '
0#
#6210000
b1100110 $
b1101000 .
b11001111 '
1#
#6240000
b11010000 '
0#
#6270000
b1101001 .
b1100111 $
b11010001 '
1#
#6300000
b11010010 '
0#
#6330000
b1101000 $
b1101010 .
b11010011 '
1#
#6360000
b11010100 '
0#
#6390000
b1101011 .
b1101001 $
b11010101 '
1#
#6420000
b11010110 '
0#
#6450000
b1101010 $
b1101100 .
b11010111 '
1#
#6480000
b11011000 '
0#
#6510000
b1101101 .
b1101011 $
b11011001 '
1#
#6540000
b11011010 '
0#
#6570000
b1101100 $
b1101110 .
b11011011 '
1#
#6600000
b11011100 '
0#
#6630000
b1101111 .
b1101101 $
b11011101 '
1#
#6660000
b11011110 '
0#
#6690000
b1101110 $
b1110000 .
b11011111 '
1#
#6720000
b11100000 '
0#
#6750000
b1110001 .
b1101111 $
b11100001 '
1#
#6780000
b11100010 '
0#
#6810000
b1110000 $
b1110010 .
b11100011 '
1#
#6840000
b11100100 '
0#
#6870000
b1110011 .
b1110001 $
b11100101 '
1#
#6900000
b11100110 '
0#
#6930000
b1110010 $
b1110100 .
b11100111 '
1#
#6960000
b11101000 '
0#
#6990000
b1110101 .
b1110011 $
b11101001 '
1#
#7020000
b11101010 '
0#
#7050000
b1110100 $
b1110110 .
b11101011 '
1#
#7080000
b11101100 '
0#
#7110000
b1110111 .
b1110101 $
b11101101 '
1#
#7140000
b11101110 '
0#
#7170000
b1110110 $
b1111000 .
b11101111 '
1#
#7200000
b11110000 '
0#
#7230000
b1111001 .
b1110111 $
b11110001 '
1#
#7260000
b11110010 '
0#
#7290000
b1111000 $
b1111010 .
b11110011 '
1#
#7320000
b11110100 '
0#
#7350000
b1111011 .
b1111001 $
b11110101 '
1#
#7380000
b11110110 '
0#
#7410000
b1111010 $
b1111100 .
b11110111 '
1#
#7440000
b11111000 '
0#
#7470000
b1111101 .
b1111011 $
b11111001 '
1#
#7500000
b11111010 '
0#
#7530000
b1111100 $
b1111110 .
b11111011 '
1#
#7560000
b11111100 '
0#
#7590000
b1111111 .
b1111101 $
b11111101 '
1#
#7620000
b11111110 '
0#
#7650000
b1111110 $
b10000000 .
b11111111 '
1#
#7680000
b100000000 '
0#
#7710000
b10000001 .
b1111111 $
b100000001 '
1#
#7740000
b100000010 '
0#
#7770000
b10000000 $
b10000010 .
b100000011 '
1#
#7800000
b100000100 '
0#
#7830000
b10000011 .
b10000001 $
b100000101 '
1#
#7860000
b100000110 '
0#
#7890000
b10000010 $
b10000100 .
b100000111 '
1#
#7920000
b100001000 '
0#
#7950000
b10000101 .
b10000011 $
b100001001 '
1#
#7980000
b100001010 '
0#
#8010000
b10000100 $
b10000110 .
b100001011 '
1#
#8040000
b100001100 '
0#
#8070000
b10000111 .
b10000101 $
b100001101 '
1#
#8100000
b100001110 '
0#
#8130000
b10000110 $
b10001000 .
b100001111 '
1#
#8160000
b100010000 '
0#
#8190000
b10001001 .
b10000111 $
b100010001 '
1#
#8220000
b100010010 '
0#
#8250000
b10001000 $
b10001010 .
b100010011 '
1#
#8280000
b100010100 '
0#
#8310000
b10001011 .
b10001001 $
b100010101 '
1#
#8340000
b100010110 '
0#
#8370000
b10001010 $
b10001100 .
b100010111 '
1#
#8400000
b100011000 '
0#
#8430000
b10001101 .
b10001011 $
b100011001 '
1#
#8460000
b100011010 '
0#
#8490000
b10001100 $
b10001110 .
b100011011 '
1#
#8520000
b100011100 '
0#
#8550000
b10001111 .
b10001101 $
b100011101 '
1#
#8580000
b100011110 '
0#
#8610000
b10001110 $
b10010000 .
b100011111 '
1#
#8640000
b100100000 '
0#
#8670000
b1 ,
b10001000 *
0+
1-
b0 .
b10001111 $
b100100001 '
1#
#8700000
b100100010 '
0#
#8730000
b10010000 $
b1 .
b100100011 '
1#
#8760000
b100100100 '
0#
#8790000
b10 .
b10010001 $
b100100101 '
1#
#8820000
b100100110 '
0#
#8850000
b10010010 $
b11 .
b100100111 '
1#
#8880000
b100101000 '
0#
#8910000
b100 .
b10010011 $
b100101001 '
1#
#8940000
b100101010 '
0#
#8970000
b10010100 $
b101 .
b100101011 '
1#
#9000000
b100101100 '
0#
#9030000
b110 .
b10010101 $
b100101101 '
1#
#9060000
b100101110 '
0#
#9090000
b10010110 $
b111 .
b100101111 '
1#
#9120000
b100110000 '
0#
#9150000
b1000 .
b10010111 $
b100110001 '
1#
#9180000
b100110010 '
0#
#9210000
b10011000 $
b1001 .
b100110011 '
1#
#9240000
b100110100 '
0#
#9270000
b1010 .
b10011001 $
b100110101 '
1#
#9300000
b100110110 '
0#
#9330000
b10011010 $
b1011 .
b100110111 '
1#
#9360000
b100111000 '
0#
#9390000
b1100 .
b10011011 $
b100111001 '
1#
#9420000
b100111010 '
0#
#9450000
b10011100 $
b1101 .
b100111011 '
1#
#9480000
b100111100 '
0#
#9510000
b1110 .
b10011101 $
b100111101 '
1#
#9540000
b100111110 '
0#
#9570000
b10011110 $
b1111 .
b100111111 '
1#
#9600000
b101000000 '
0#
#9630000
b10000 .
b10011111 $
b101000001 '
1#
#9660000
b101000010 '
0#
#9690000
b10100000 $
b10001 .
b101000011 '
1#
#9720000
b101000100 '
0#
#9750000
b10010 .
b10100001 $
b101000101 '
1#
#9780000
b101000110 '
0#
#9810000
b10100010 $
b10011 .
b101000111 '
1#
#9840000
b101001000 '
0#
#9870000
b10100 .
b10100011 $
b101001001 '
1#
#9900000
b101001010 '
0#
#9930000
b10100100 $
b10101 .
b101001011 '
1#
#9960000
b101001100 '
0#
#9990000
b10110 .
b10100101 $
b101001101 '
1#
#10020000
b101001110 '
0#
#10050000
b10100110 $
b10111 .
b101001111 '
1#
#10080000
b101010000 '
0#
#10110000
b11000 .
b10100111 $
b101010001 '
1#
#10140000
b101010010 '
0#
#10170000
b10101000 $
b11001 .
b101010011 '
1#
#10200000
b101010100 '
0#
#10230000
b11010 .
b10101001 $
b101010101 '
1#
#10260000
b101010110 '
0#
#10290000
b10101010 $
b11011 .
b101010111 '
1#
#10320000
b101011000 '
0#
#10350000
b11100 .
b10101011 $
b101011001 '
1#
#10380000
b101011010 '
0#
#10410000
b10101100 $
b11101 .
b101011011 '
1#
#10440000
b101011100 '
0#
#10470000
b11110 .
b10101101 $
b101011101 '
1#
#10500000
b101011110 '
0#
#10530000
b10101110 $
b11111 .
b101011111 '
1#
#10560000
b101100000 '
0#
#10590000
b100000 .
b10101111 $
b101100001 '
1#
#10620000
b101100010 '
0#
#10650000
b10110000 $
b100001 .
b101100011 '
1#
#10680000
b101100100 '
0#
#10710000
b100010 .
b10110001 $
b101100101 '
1#
#10740000
b101100110 '
0#
#10770000
b10110010 $
b100011 .
b101100111 '
1#
#10800000
b101101000 '
0#
#10830000
b100100 .
b10110011 $
b101101001 '
1#
#10860000
b101101010 '
0#
#10890000
b10110100 $
b100101 .
b101101011 '
1#
#10920000
b101101100 '
0#
#10950000
b100110 .
b10110101 $
b101101101 '
1#
#10980000
b101101110 '
0#
#11010000
b10110110 $
b100111 .
b101101111 '
1#
#11040000
b101110000 '
0#
#11070000
b101000 .
b10110111 $
b101110001 '
1#
#11100000
b101110010 '
0#
#11130000
b10111000 $
b101001 .
b101110011 '
1#
#11160000
b101110100 '
0#
#11190000
b101010 .
b10111001 $
b101110101 '
1#
#11220000
b101110110 '
0#
#11250000
b10111010 $
b101011 .
b101110111 '
1#
#11280000
b101111000 '
0#
#11310000
b101100 .
b10111011 $
b101111001 '
1#
#11340000
b101111010 '
0#
#11370000
b10111100 $
b101101 .
b101111011 '
1#
#11400000
b101111100 '
0#
#11430000
b101110 .
b10111101 $
b101111101 '
1#
#11460000
b101111110 '
0#
#11490000
b10111110 $
b101111 .
b101111111 '
1#
#11520000
b110000000 '
0#
#11550000
b110000 .
b10111111 $
b110000001 '
1#
#11580000
b110000010 '
0#
#11610000
b11000000 $
b110001 .
b110000011 '
1#
#11640000
b110000100 '
0#
#11670000
b110010 .
b11000001 $
b110000101 '
1#
#11700000
b110000110 '
0#
#11730000
b11000010 $
b110011 .
b110000111 '
1#
#11760000
b110001000 '
0#
#11790000
b110100 .
b11000011 $
b110001001 '
1#
#11820000
b110001010 '
0#
#11850000
b11000100 $
b110101 .
b110001011 '
1#
#11880000
b110001100 '
0#
#11910000
b110110 .
b11000101 $
b110001101 '
1#
#11940000
b110001110 '
0#
#11970000
b11000110 $
b110111 .
b110001111 '
1#
#12000000
b110010000 '
0#
#12030000
b111000 .
b11000111 $
b110010001 '
1#
#12060000
b110010010 '
0#
#12090000
b11001000 $
b111001 .
b110010011 '
1#
#12120000
b110010100 '
0#
#12150000
b111010 .
b11001001 $
b110010101 '
1#
#12180000
b110010110 '
0#
#12210000
b11001010 $
b111011 .
b110010111 '
1#
#12240000
b110011000 '
0#
#12270000
b111100 .
b11001011 $
b110011001 '
1#
#12300000
b110011010 '
0#
#12330000
b11001100 $
b111101 .
b110011011 '
1#
#12360000
b110011100 '
0#
#12390000
b111110 .
b11001101 $
b110011101 '
1#
#12420000
b110011110 '
0#
#12450000
b11001110 $
b111111 .
b110011111 '
1#
#12480000
b110100000 '
0#
#12510000
b1000000 .
b11001111 $
b110100001 '
1#
#12540000
b110100010 '
0#
#12570000
b11010000 $
b1000001 .
b110100011 '
1#
#12600000
b110100100 '
0#
#12630000
b1000010 .
b11010001 $
b110100101 '
1#
#12660000
b110100110 '
0#
#12690000
b11010010 $
b1000011 .
b110100111 '
1#
#12720000
b110101000 '
0#
#12750000
b1000100 .
b11010011 $
b110101001 '
1#
#12780000
b110101010 '
0#
#12810000
b11010100 $
b1000101 .
b110101011 '
1#
#12840000
b110101100 '
0#
#12870000
b1000110 .
b11010101 $
b110101101 '
1#
#12900000
b110101110 '
0#
#12930000
b11010110 $
b1000111 .
b110101111 '
1#
#12960000
b110110000 '
0#
#12990000
b1001000 .
b11010111 $
b110110001 '
1#
#13020000
b110110010 '
0#
#13050000
b11011000 $
b1001001 .
b110110011 '
1#
#13080000
b110110100 '
0#
#13110000
b1001010 .
b11011001 $
b110110101 '
1#
#13140000
b110110110 '
0#
#13170000
b11011010 $
b1001011 .
b110110111 '
1#
#13200000
b110111000 '
0#
#13230000
b1001100 .
b11011011 $
b110111001 '
1#
#13260000
b110111010 '
0#
#13290000
b11011100 $
b1001101 .
b110111011 '
1#
#13320000
b110111100 '
0#
#13350000
b1001110 .
b11011101 $
b110111101 '
1#
#13380000
b110111110 '
0#
#13410000
b11011110 $
b1001111 .
b110111111 '
1#
#13440000
b111000000 '
0#
#13470000
b1010000 .
b11011111 $
b111000001 '
1#
#13500000
b111000010 '
0#
#13530000
b11100000 $
b1010001 .
b111000011 '
1#
#13560000
b111000100 '
0#
#13590000
b1010010 .
b11100001 $
b111000101 '
1#
#13620000
b111000110 '
0#
#13650000
b11100010 $
b1010011 .
b111000111 '
1#
#13680000
b111001000 '
0#
#13710000
b1010100 .
b11100011 $
b111001001 '
1#
#13740000
b111001010 '
0#
#13770000
b11100100 $
b1010101 .
b111001011 '
1#
#13800000
b111001100 '
0#
#13830000
b1010110 .
b11100101 $
b111001101 '
1#
#13860000
b111001110 '
0#
#13890000
b11100110 $
b1010111 .
b111001111 '
1#
#13920000
b111010000 '
0#
#13950000
b1011000 .
b11100111 $
b111010001 '
1#
#13980000
b111010010 '
0#
#14010000
b11101000 $
b1011001 .
b111010011 '
1#
#14040000
b111010100 '
0#
#14070000
b1011010 .
b11101001 $
b111010101 '
1#
#14100000
b111010110 '
0#
#14130000
b11101010 $
b1011011 .
b111010111 '
1#
#14160000
b111011000 '
0#
#14190000
b1011100 .
b11101011 $
b111011001 '
1#
#14220000
b111011010 '
0#
#14250000
b11101100 $
b1011101 .
b111011011 '
1#
#14280000
b111011100 '
0#
#14310000
b1011110 .
b11101101 $
b111011101 '
1#
#14340000
b111011110 '
0#
#14370000
b11101110 $
b1011111 .
b111011111 '
1#
#14400000
b111100000 '
0#
#14430000
b1100000 .
b11101111 $
b111100001 '
1#
#14460000
b111100010 '
0#
#14490000
b11110000 $
b1100001 .
b111100011 '
1#
#14520000
b111100100 '
0#
#14550000
b1100010 .
b11110001 $
b111100101 '
1#
#14580000
b111100110 '
0#
#14610000
b11110010 $
b1100011 .
b111100111 '
1#
#14640000
b111101000 '
0#
#14670000
b1100100 .
b11110011 $
b111101001 '
1#
#14700000
b111101010 '
0#
#14730000
b11110100 $
b1100101 .
b111101011 '
1#
#14760000
b111101100 '
0#
#14790000
b1100110 .
b11110101 $
b111101101 '
1#
#14820000
b111101110 '
0#
#14850000
b11110110 $
b1100111 .
b111101111 '
1#
#14880000
b111110000 '
0#
#14910000
b1101000 .
b11110111 $
b111110001 '
1#
#14940000
b111110010 '
0#
#14970000
b11111000 $
b1101001 .
b111110011 '
1#
#15000000
b111110100 '
0#
#15030000
b1101010 .
b11111001 $
b111110101 '
1#
#15060000
b111110110 '
0#
#15090000
b11111010 $
b1101011 .
b111110111 '
1#
#15120000
b111111000 '
0#
#15150000
b1101100 .
b11111011 $
b111111001 '
1#
#15180000
b111111010 '
0#
#15210000
b11111100 $
b1101101 .
b111111011 '
1#
#15240000
b111111100 '
0#
#15270000
b1101110 .
b11111101 $
b111111101 '
1#
#15300000
b111111110 '
0#
#15330000
b11111110 $
b1101111 .
b111111111 '
1#
#15360000
b1000000000 '
0#
#15390000
b1110000 .
b11111111 $
b1000000001 '
1#
#15420000
b1000000010 '
0#
#15450000
b100000000 $
b1110001 .
b1000000011 '
1#
#15480000
b1000000100 '
0#
#15510000
b1110010 .
b100000001 $
b1000000101 '
1#
#15540000
b1000000110 '
0#
#15570000
b100000010 $
b1110011 .
b1000000111 '
1#
#15600000
b1000001000 '
0#
#15630000
b1110100 .
b100000011 $
b1000001001 '
1#
#15660000
b1000001010 '
0#
#15690000
b100000100 $
b1110101 .
b1000001011 '
1#
#15720000
b1000001100 '
0#
#15750000
b1110110 .
b100000101 $
b1000001101 '
1#
#15780000
b1000001110 '
0#
#15810000
b100000110 $
b1110111 .
b1000001111 '
1#
#15840000
b1000010000 '
0#
#15870000
b1111000 .
b100000111 $
b1000010001 '
1#
#15900000
b1000010010 '
0#
#15930000
b100001000 $
b1111001 .
b1000010011 '
1#
#15960000
b1000010100 '
0#
#15990000
b1111010 .
b100001001 $
b1000010101 '
1#
#16020000
b1000010110 '
0#
#16050000
b100001010 $
b1111011 .
b1000010111 '
1#
#16080000
b1000011000 '
0#
#16110000
b1111100 .
b100001011 $
b1000011001 '
1#
#16140000
b1000011010 '
0#
#16170000
b100001100 $
b1111101 .
b1000011011 '
1#
#16200000
b1000011100 '
0#
#16230000
b1111110 .
b100001101 $
b1000011101 '
1#
#16260000
b1000011110 '
0#
#16290000
b100001110 $
b1111111 .
b1000011111 '
1#
#16320000
b1000100000 '
0#
#16350000
b10000000 .
b100001111 $
b1000100001 '
1#
#16380000
b1000100010 '
0#
#16410000
b100010000 $
b10000001 .
b1000100011 '
1#
#16440000
b1000100100 '
0#
#16470000
b10000010 .
b100010001 $
b1000100101 '
1#
#16500000
b1000100110 '
0#
#16530000
b100010010 $
b10000011 .
b1000100111 '
1#
#16560000
b1000101000 '
0#
#16590000
b10000100 .
b100010011 $
b1000101001 '
1#
#16620000
b1000101010 '
0#
#16650000
b100010100 $
b10000101 .
b1000101011 '
1#
#16680000
b1000101100 '
0#
#16710000
b10000110 .
b100010101 $
b1000101101 '
1#
#16740000
b1000101110 '
0#
#16770000
b100010110 $
b10000111 .
b1000101111 '
1#
#16800000
b1000110000 '
0#
#16830000
b10001000 .
b100010111 $
b1000110001 '
1#
#16860000
b1000110010 '
0#
#16890000
b100011000 $
b10001001 .
b1000110011 '
1#
#16920000
b1000110100 '
0#
#16950000
b10001010 .
b100011001 $
b1000110101 '
1#
#16980000
b1000110110 '
0#
#17010000
b100011010 $
b10001011 .
b1000110111 '
1#
#17040000
b1000111000 '
0#
#17070000
b10001100 .
b100011011 $
b1000111001 '
1#
#17100000
b1000111010 '
0#
#17130000
b100011100 $
b10001101 .
b1000111011 '
1#
#17160000
b1000111100 '
0#
#17190000
b10001110 .
b100011101 $
b1000111101 '
1#
#17220000
b1000111110 '
0#
#17250000
b100011110 $
b10001111 .
b1000111111 '
1#
#17280000
b1001000000 '
0#
#17310000
b10010000 .
b100011111 $
b1001000001 '
1#
#17340000
b1001000010 '
0#
#17370000
b100100000 $
0-
b0 .
b1001000011 '
1#
#17400000
b1001000100 '
0#
#17430000
b1 .
b100100001 $
b1001000101 '
1#
#17460000
b1001000110 '
0#
#17490000
b100100010 $
b10 .
b1001000111 '
1#
#17520000
b1001001000 '
0#
#17550000
b11 .
b100100011 $
b1001001001 '
1#
#17580000
b1001001010 '
0#
#17610000
b100100100 $
b100 .
b1001001011 '
1#
#17640000
b1001001100 '
0#
#17670000
b101 .
b100100101 $
b1001001101 '
1#
#17700000
b1001001110 '
0#
#17730000
b100100110 $
b110 .
b1001001111 '
1#
#17760000
b1001010000 '
0#
#17790000
b111 .
b100100111 $
b1001010001 '
1#
#17820000
b1001010010 '
0#
#17850000
b100101000 $
b1000 .
b1001010011 '
1#
#17880000
b1001010100 '
0#
#17910000
b1001 .
b100101001 $
b1001010101 '
1#
#17940000
b1001010110 '
0#
#17970000
b100101010 $
b1010 .
b1001010111 '
1#
#18000000
b1001011000 '
0#
#18030000
b1011 .
b100101011 $
b1001011001 '
1#
#18060000
b1001011010 '
0#
#18090000
b100101100 $
b1100 .
b1001011011 '
1#
#18120000
b1001011100 '
0#
#18150000
b1101 .
b100101101 $
b1001011101 '
1#
#18180000
b1001011110 '
0#
#18210000
b100101110 $
b1110 .
b1001011111 '
1#
#18240000
b1001100000 '
0#
#18270000
b1111 .
b100101111 $
b1001100001 '
1#
#18300000
b1001100010 '
0#
#18330000
b100110000 $
b10000 .
b1001100011 '
1#
#18360000
b1001100100 '
0#
#18390000
b10001 .
b100110001 $
b1001100101 '
1#
#18420000
b1001100110 '
0#
#18450000
b100110010 $
b10010 .
b1001100111 '
1#
#18480000
b1001101000 '
0#
#18510000
b10011 .
b100110011 $
b1001101001 '
1#
#18540000
b1001101010 '
0#
#18570000
b100110100 $
b10100 .
b1001101011 '
1#
#18600000
b1001101100 '
0#
#18630000
b10101 .
b100110101 $
b1001101101 '
1#
#18660000
b1001101110 '
0#
#18690000
b100110110 $
b10110 .
b1001101111 '
1#
#18720000
b1001110000 '
0#
#18750000
b10111 .
b100110111 $
b1001110001 '
1#
#18780000
b1001110010 '
0#
#18810000
b100111000 $
b11000 .
b1001110011 '
1#
#18840000
b1001110100 '
0#
#18870000
b11001 .
b100111001 $
b1001110101 '
1#
#18900000
b1001110110 '
0#
#18930000
b100111010 $
b11010 .
b1001110111 '
1#
#18960000
b1001111000 '
0#
#18990000
b11011 .
b100111011 $
b1001111001 '
1#
#19020000
b1001111010 '
0#
#19050000
b100111100 $
b11100 .
b1001111011 '
1#
#19080000
b1001111100 '
0#
#19110000
b11101 .
b100111101 $
b1001111101 '
1#
#19140000
b1001111110 '
0#
#19170000
b100111110 $
b11110 .
b1001111111 '
1#
#19200000
b1010000000 '
0#
#19230000
b11111 .
b100111111 $
b1010000001 '
1#
#19260000
b1010000010 '
0#
#19290000
b101000000 $
b100000 .
b1010000011 '
1#
#19320000
b1010000100 '
0#
#19350000
b100001 .
b101000001 $
b1010000101 '
1#
#19380000
b1010000110 '
0#
#19410000
b101000010 $
b100010 .
b1010000111 '
1#
#19440000
b1010001000 '
0#
#19470000
b100011 .
b101000011 $
b1010001001 '
1#
#19500000
b1010001010 '
0#
#19530000
b101000100 $
b100100 .
b1010001011 '
1#
#19560000
b1010001100 '
0#
#19590000
b100101 .
b101000101 $
b1010001101 '
1#
#19620000
b1010001110 '
0#
#19650000
b101000110 $
b100110 .
b1010001111 '
1#
#19680000
b1010010000 '
0#
#19710000
b100111 .
b101000111 $
b1010010001 '
1#
#19740000
b1010010010 '
0#
#19770000
b101001000 $
b101000 .
b1010010011 '
1#
#19800000
b1010010100 '
0#
#19830000
b101001 .
b101001001 $
b1010010101 '
1#
#19860000
b1010010110 '
0#
#19890000
b101001010 $
b101010 .
b1010010111 '
1#
#19920000
b1010011000 '
0#
#19950000
b101011 .
b101001011 $
b1010011001 '
1#
